[
  {
    "model": "project.category",
    "pk": 1,
    "fields": {
      "name": "Design",
      "slug": "design"
    }
  },
  {
    "model": "project.category",
    "pk": 2,
    "fields": {
      "name": "Insfrastructure Solutions",
      "slug": "insfrastructure-solutions"
    }
  },
  {
    "model": "project.category",
    "pk": 3,
    "fields": {
      "name": "Tooling",
      "slug": "tooling"
    }
  },
  {
    "model": "project.category",
    "pk": 4,
    "fields": {
      "name": "Software Development",
      "slug": "software-development"
    }
  },
  {
    "model": "project.category",
    "pk": 5,
    "fields": {
      "name": "Hardware Development",
      "slug": "hardware-development"
    }
  },
  {
    "model": "project.category",
    "pk": 6,
    "fields": {
      "name": "Project Management",
      "slug": "project-management"
    }
  }
]
